<?xml version="1.0" encoding="utf-8"?>
<!-- Generator: Adobe Illustrator 15.0.0, SVG Export Plug-In . SVG Version: 6.00 Build 0)  -->
<!DOCTYPE svg PUBLIC "-//W3C//DTD SVG 1.1//EN" "http://www.w3.org/Graphics/SVG/1.1/DTD/svg11.dtd">
<svg version="1.1" id="Capa_1" xmlns="http://www.w3.org/2000/svg" xmlns:xlink="http://www.w3.org/1999/xlink" x="0px" y="0px"
	 width="246px" height="64px" viewBox="0 0 246 64" enable-background="new 0 0 246 64" xml:space="preserve">
<g>
	<g>
		<g>
			<g>
				<linearGradient id="SVGID_1_" gradientUnits="userSpaceOnUse" x1="74.7485" y1="20.3857" x2="5.9266" y2="40.0491">
					<stop  offset="0.0279" style="stop-color:#8DFBF8"/>
					<stop  offset="0.4663" style="stop-color:#69BBED"/>
					<stop  offset="0.9987" style="stop-color:#3B68DF"/>
				</linearGradient>
				<path fill="url(#SVGID_1_)" d="M63.616,57.34H11.224c-1.572,0-2.859-1.311-2.859-2.912V10.272c0-1.995,1.588-3.611,3.547-3.611
					h25.518c1.627,0,3.11-1.192,3.272-2.841c0.187-1.896-1.271-3.494-3.095-3.494H4.632c-1.375,0-2.489,1.135-2.489,2.534l0,0v2.534
					v50.678v2.533v0.635c0,2.438,1.96,4.434,4.355,4.434h56.94c1.627,0,3.109-1.191,3.271-2.84
					C66.897,58.938,65.44,57.34,63.616,57.34z"/>
				<linearGradient id="SVGID_2_" gradientUnits="userSpaceOnUse" x1="74.6431" y1="20.0156" x2="5.8209" y2="39.6791">
					<stop  offset="0.0279" style="stop-color:#8DFBF8"/>
					<stop  offset="0.4663" style="stop-color:#69BBED"/>
					<stop  offset="0.9987" style="stop-color:#3B68DF"/>
				</linearGradient>
				<path fill="url(#SVGID_2_)" d="M18.621,12.379c-1.619,0.165-2.79,1.675-2.79,3.331v27.06v1.267l0,0
					c0,3.833,3.08,6.968,6.844,6.968h25.954c1.627,0,3.11-1.191,3.272-2.84c0.186-1.896-1.271-3.494-3.095-3.494H29.158
					c-3.908,0-7.105-3.256-7.105-7.234V15.529C22.052,13.673,20.483,12.188,18.621,12.379z"/>
				<linearGradient id="SVGID_3_" gradientUnits="userSpaceOnUse" x1="76.8267" y1="27.6558" x2="8.0044" y2="47.3193">
					<stop  offset="0.0279" style="stop-color:#8DFBF8"/>
					<stop  offset="0.4663" style="stop-color:#69BBED"/>
					<stop  offset="0.9987" style="stop-color:#3B68DF"/>
				</linearGradient>
				<path fill="url(#SVGID_3_)" d="M77.155,58.505L55.807,2.639c-1.528-2.833-6.087-2.95-7.775-0.208L32.971,34.247
					c-0.745,1.575-0.096,3.47,1.451,4.229c0.446,0.219,0.916,0.318,1.378,0.314c1.146-0.011,2.244-0.67,2.776-1.793L51.682,9.312
					l19.675,51.489c0.481,1.263,1.672,2.032,2.927,2.021c0.367-0.003,0.738-0.073,1.1-0.217
					C76.985,61.971,77.778,60.135,77.155,58.505z"/>
				
					<linearGradient id="SVGID_4_" gradientUnits="userSpaceOnUse" x1="76.4214" y1="839.1475" x2="7.6011" y2="858.8104" gradientTransform="matrix(1 0 0 -1 0 878.7773)">
					<stop  offset="0.0279" style="stop-color:#8DFBF8"/>
					<stop  offset="0.4663" style="stop-color:#69BBED"/>
					<stop  offset="0.9987" style="stop-color:#3B68DF"/>
				</linearGradient>
				<path fill="url(#SVGID_4_)" d="M56.785,37.613l-4.833-12.646c-0.248-0.649-1.154-0.685-1.452-0.056l-0.912,1.928l-5.073,10.719
					c-0.248,0.524,0.134,1.128,0.714,1.128h10.818C56.6,38.686,56.982,38.131,56.785,37.613z"/>
			</g>
		</g>
	</g>
	<linearGradient id="SVGID_5_" gradientUnits="userSpaceOnUse" x1="95.1978" y1="47.1992" x2="243.8574" y2="47.1992">
		<stop  offset="0.0279" style="stop-color:#8DFBF8"/>
		<stop  offset="0.4663" style="stop-color:#69BBED"/>
		<stop  offset="0.9987" style="stop-color:#3B68DF"/>
	</linearGradient>
	<path fill="url(#SVGID_5_)" d="M240.965,55.821H98.089c-1.59,0-2.892-1.302-2.892-2.892V41.471c0-1.591,1.302-2.893,2.892-2.893
		h142.875c1.59,0,2.893,1.302,2.893,2.893V52.93C243.857,54.52,242.555,55.821,240.965,55.821z"/>
	<g>
		<linearGradient id="SVGID_6_" gradientUnits="userSpaceOnUse" x1="85.5117" y1="21.4146" x2="246.3351" y2="22.5392">
			<stop  offset="0.0279" style="stop-color:#8DFBF8"/>
			<stop  offset="0.4663" style="stop-color:#69BBED"/>
			<stop  offset="0.9987" style="stop-color:#3B68DF"/>
		</linearGradient>
		<path fill="url(#SVGID_6_)" d="M112.181,27.341c0,2.352-0.847,4.205-2.539,5.56c-1.693,1.355-4.049,2.031-7.065,2.031
			c-2.781,0-5.24-0.521-7.379-1.567v-5.133c1.758,0.784,3.247,1.336,4.464,1.657c1.219,0.32,2.332,0.481,3.342,0.481
			c1.212,0,2.141-0.231,2.789-0.695c0.647-0.463,0.972-1.152,0.972-2.067c0-0.511-0.143-0.965-0.428-1.363
			c-0.286-0.397-0.704-0.781-1.257-1.148c-0.552-0.369-1.678-0.957-3.377-1.765c-1.592-0.749-2.786-1.468-3.581-2.156
			c-0.797-0.689-1.433-1.491-1.907-2.406c-0.476-0.915-0.714-1.983-0.714-3.207c0-2.305,0.781-4.117,2.344-5.436
			c1.563-1.319,3.722-1.979,6.478-1.979c1.354,0,2.647,0.161,3.877,0.481c1.229,0.32,2.515,0.772,3.858,1.354l-1.782,4.295
			c-1.391-0.57-2.54-0.969-3.449-1.194s-1.802-0.339-2.682-0.339c-1.045,0-1.847,0.244-2.406,0.731
			c-0.558,0.487-0.837,1.122-0.837,1.906c0,0.487,0.113,0.912,0.338,1.274c0.226,0.362,0.586,0.713,1.079,1.051
			c0.493,0.339,1.659,0.948,3.502,1.827c2.435,1.164,4.104,2.332,5.007,3.502C111.729,24.207,112.181,25.642,112.181,27.341z"/>
		<linearGradient id="SVGID_7_" gradientUnits="userSpaceOnUse" x1="85.5117" y1="21.2852" x2="246.3382" y2="22.4098">
			<stop  offset="0.0279" style="stop-color:#8DFBF8"/>
			<stop  offset="0.4663" style="stop-color:#69BBED"/>
			<stop  offset="0.9987" style="stop-color:#3B68DF"/>
		</linearGradient>
		<path fill="url(#SVGID_7_)" d="M120.553,34.576V8.522h5.525v26.054H120.553z"/>
		<linearGradient id="SVGID_8_" gradientUnits="userSpaceOnUse" x1="85.5186" y1="21.1655" x2="246.3296" y2="22.2901">
			<stop  offset="0.0279" style="stop-color:#8DFBF8"/>
			<stop  offset="0.4663" style="stop-color:#69BBED"/>
			<stop  offset="0.9987" style="stop-color:#3B68DF"/>
		</linearGradient>
		<path fill="url(#SVGID_8_)" d="M157.9,21.299c0,4.289-1.219,7.574-3.66,9.855c-2.443,2.281-5.969,3.422-10.578,3.422h-7.377V8.522
			h8.18c4.252,0,7.557,1.122,9.908,3.368C156.725,14.136,157.9,17.271,157.9,21.299z M152.164,21.442
			c0-5.596-2.473-8.394-7.414-8.394h-2.941v16.965h2.371C149.502,30.014,152.164,27.157,152.164,21.442z"/>
		<linearGradient id="SVGID_9_" gradientUnits="userSpaceOnUse" x1="85.5195" y1="20.8994" x2="246.3384" y2="22.024">
			<stop  offset="0.0279" style="stop-color:#8DFBF8"/>
			<stop  offset="0.4663" style="stop-color:#69BBED"/>
			<stop  offset="0.9987" style="stop-color:#3B68DF"/>
		</linearGradient>
		<path fill="url(#SVGID_9_)" d="M190.064,34.576h-7.021l-11.334-19.71h-0.16c0.225,3.481,0.338,5.964,0.338,7.449v12.261h-4.936
			V8.522h6.967l11.316,19.513h0.125c-0.178-3.386-0.268-5.779-0.268-7.181V8.522h4.973V34.576z"/>
		<linearGradient id="SVGID_10_" gradientUnits="userSpaceOnUse" x1="85.5127" y1="20.6948" x2="246.3413" y2="21.8195">
			<stop  offset="0.0279" style="stop-color:#8DFBF8"/>
			<stop  offset="0.4663" style="stop-color:#69BBED"/>
			<stop  offset="0.9987" style="stop-color:#3B68DF"/>
		</linearGradient>
		<path fill="url(#SVGID_10_)" d="M215.277,34.576h-15.006V8.522h15.006v4.526h-9.48v5.72h8.82v4.526h-8.82v6.719h9.48V34.576z"/>
		<linearGradient id="SVGID_11_" gradientUnits="userSpaceOnUse" x1="85.5093" y1="20.4917" x2="246.3429" y2="21.6164">
			<stop  offset="0.0279" style="stop-color:#8DFBF8"/>
			<stop  offset="0.4663" style="stop-color:#69BBED"/>
			<stop  offset="0.9987" style="stop-color:#3B68DF"/>
		</linearGradient>
		<path fill="url(#SVGID_11_)" d="M232.469,19.25l5.436-10.728h5.953l-8.645,15.913v10.141h-5.488v-9.962l-8.643-16.092h5.988
			L232.469,19.25z"/>
	</g>
	<g>
		<path fill="#000032" d="M109.058,51.475h-2.483l-4.007-6.969h-0.057c0.079,1.23,0.119,2.108,0.119,2.633v4.336h-1.745v-9.213
			h2.464l4.001,6.9h0.044c-0.063-1.197-0.095-2.044-0.095-2.539v-4.361h1.759V51.475z"/>
		<path fill="#000032" d="M116.86,51.475l-0.258-0.901h-0.101c-0.206,0.327-0.498,0.581-0.876,0.759
			c-0.378,0.179-0.809,0.268-1.292,0.268c-0.827,0-1.451-0.221-1.871-0.664s-0.63-1.08-0.63-1.912V44.43h1.922v4.115
			c0,0.508,0.09,0.889,0.271,1.143s0.469,0.381,0.863,0.381c0.537,0,0.926-0.179,1.166-0.538c0.239-0.358,0.358-0.954,0.358-1.786
			V44.43h1.922v7.045H116.86z"/>
		<path fill="#000032" d="M124.186,51.6c-1.134,0-2.021-0.313-2.66-0.938s-0.957-1.513-0.957-2.659c0-1.18,0.295-2.092,0.885-2.737
			s1.406-0.968,2.448-0.968c0.995,0,1.77,0.284,2.325,0.852c0.555,0.566,0.832,1.35,0.832,2.35v0.933h-4.543
			c0.021,0.546,0.183,0.973,0.485,1.279s0.727,0.46,1.273,0.46c0.424,0,0.826-0.045,1.203-0.133
			c0.379-0.088,0.773-0.229,1.186-0.422v1.487c-0.336,0.168-0.695,0.293-1.078,0.374C125.201,51.559,124.736,51.6,124.186,51.6z
			 M123.915,45.664c-0.408,0-0.728,0.13-0.958,0.389c-0.231,0.258-0.363,0.625-0.397,1.1h2.697c-0.008-0.475-0.133-0.842-0.371-1.1
			C124.645,45.794,124.322,45.664,123.915,45.664z"/>
		<path fill="#000032" d="M130.941,51.475l-2.684-7.045h2.01l1.361,4.014c0.15,0.508,0.246,0.989,0.283,1.443h0.037
			c0.021-0.404,0.115-0.885,0.283-1.443l1.355-4.014h2.01l-2.684,7.045H130.941z"/>
		<path fill="#000032" d="M141.725,51.475l-0.371-0.958h-0.051c-0.322,0.407-0.656,0.69-0.998,0.847
			c-0.342,0.158-0.789,0.236-1.34,0.236c-0.676,0-1.207-0.193-1.596-0.579s-0.584-0.937-0.584-1.651
			c0-0.747,0.262-1.299,0.785-1.653s1.311-0.552,2.365-0.589l1.223-0.038v-0.31c0-0.713-0.365-1.07-1.096-1.07
			c-0.563,0-1.225,0.17-1.984,0.51l-0.637-1.297c0.811-0.425,1.709-0.637,2.695-0.637c0.945,0,1.67,0.205,2.174,0.617
			c0.506,0.412,0.758,1.037,0.758,1.877v4.695H141.725z M141.158,48.211l-0.744,0.024c-0.559,0.017-0.975,0.118-1.246,0.303
			c-0.273,0.185-0.41,0.466-0.41,0.845c0,0.541,0.311,0.813,0.932,0.813c0.445,0,0.803-0.129,1.068-0.385
			c0.268-0.256,0.4-0.596,0.4-1.021V48.211z"/>
		<path fill="#000032" d="M153.336,46.301h3.654v4.776c-0.592,0.193-1.148,0.329-1.672,0.406s-1.059,0.116-1.604,0.116
			c-1.391,0-2.453-0.408-3.186-1.225c-0.732-0.817-1.1-1.99-1.1-3.52c0-1.486,0.426-2.646,1.275-3.479
			c0.852-0.831,2.031-1.247,3.539-1.247c0.945,0,1.855,0.188,2.734,0.567l-0.648,1.563c-0.672-0.336-1.373-0.504-2.1-0.504
			c-0.844,0-1.52,0.283-2.027,0.85c-0.51,0.568-0.764,1.33-0.764,2.288c0,0.999,0.205,1.763,0.615,2.29
			c0.408,0.527,1.004,0.791,1.785,0.791c0.408,0,0.822-0.042,1.242-0.126v-1.922h-1.746V46.301z"/>
		<path fill="#000032" d="M164.15,51.475l-0.371-0.958h-0.051c-0.322,0.407-0.656,0.69-0.998,0.847
			c-0.342,0.158-0.789,0.236-1.34,0.236c-0.676,0-1.207-0.193-1.596-0.579s-0.584-0.937-0.584-1.651
			c0-0.747,0.262-1.299,0.785-1.653s1.311-0.552,2.365-0.589l1.223-0.038v-0.31c0-0.713-0.365-1.07-1.096-1.07
			c-0.563,0-1.225,0.17-1.984,0.51l-0.637-1.297c0.811-0.425,1.709-0.637,2.695-0.637c0.945,0,1.67,0.205,2.174,0.617
			c0.506,0.412,0.758,1.037,0.758,1.877v4.695H164.15z M163.584,48.211l-0.744,0.024c-0.559,0.017-0.975,0.118-1.246,0.303
			c-0.273,0.185-0.41,0.466-0.41,0.845c0,0.541,0.311,0.813,0.932,0.813c0.445,0,0.803-0.129,1.068-0.385
			c0.268-0.256,0.4-0.596,0.4-1.021V48.211z"/>
		<path fill="#000032" d="M170.039,51.475h-1.922V41.67h1.922V51.475z"/>
		<path fill="#000032" d="M175.889,51.6c-1.135,0-2.021-0.313-2.66-0.938s-0.957-1.513-0.957-2.659c0-1.18,0.295-2.092,0.885-2.737
			s1.406-0.968,2.449-0.968c0.994,0,1.77,0.284,2.324,0.852c0.555,0.566,0.832,1.35,0.832,2.35v0.933h-4.543
			c0.021,0.546,0.182,0.973,0.484,1.279s0.727,0.46,1.273,0.46c0.424,0,0.826-0.045,1.203-0.133
			c0.379-0.088,0.773-0.229,1.186-0.422v1.487c-0.336,0.168-0.695,0.293-1.078,0.374C176.904,51.559,176.439,51.6,175.889,51.6z
			 M175.617,45.664c-0.408,0-0.727,0.13-0.957,0.389c-0.232,0.258-0.363,0.625-0.398,1.1h2.697c-0.008-0.475-0.133-0.842-0.371-1.1
			C176.348,45.794,176.025,45.664,175.617,45.664z"/>
		<path fill="#000032" d="M185.885,49.383c0,0.723-0.252,1.271-0.754,1.65c-0.502,0.378-1.252,0.566-2.252,0.566
			c-0.514,0-0.949-0.034-1.311-0.104s-0.699-0.171-1.016-0.306v-1.588c0.357,0.169,0.76,0.31,1.207,0.423s0.842,0.17,1.182,0.17
			c0.697,0,1.047-0.201,1.047-0.605c0-0.15-0.047-0.273-0.139-0.368c-0.094-0.095-0.252-0.202-0.479-0.321
			c-0.229-0.12-0.529-0.26-0.908-0.419c-0.541-0.228-0.939-0.437-1.193-0.63s-0.439-0.415-0.555-0.665s-0.174-0.558-0.174-0.923
			c0-0.627,0.242-1.11,0.729-1.453c0.484-0.342,1.172-0.514,2.063-0.514c0.85,0,1.674,0.186,2.477,0.555l-0.58,1.387
			c-0.352-0.151-0.682-0.275-0.988-0.372s-0.621-0.146-0.939-0.146c-0.566,0-0.85,0.154-0.85,0.461c0,0.172,0.09,0.321,0.273,0.447
			c0.182,0.126,0.582,0.313,1.199,0.561c0.551,0.223,0.955,0.431,1.211,0.624c0.256,0.192,0.445,0.415,0.566,0.668
			C185.824,48.733,185.885,49.033,185.885,49.383z"/>
		<path fill="#000032" d="M194.256,51.6c-0.826,0-1.477-0.32-1.949-0.963s-0.709-1.533-0.709-2.672c0-1.155,0.24-2.055,0.721-2.7
			c0.482-0.646,1.145-0.968,1.988-0.968c0.887,0,1.563,0.346,2.029,1.033h0.063c-0.096-0.524-0.145-0.992-0.145-1.404V41.67h1.928
			v9.805h-1.475l-0.371-0.914h-0.082C195.816,51.254,195.152,51.6,194.256,51.6z M194.932,50.068c0.49,0,0.852-0.143,1.08-0.428
			s0.354-0.771,0.375-1.455v-0.209c0-0.756-0.117-1.297-0.35-1.625c-0.234-0.328-0.613-0.492-1.139-0.492
			c-0.428,0-0.76,0.183-0.998,0.546c-0.236,0.363-0.355,0.892-0.355,1.585c0,0.692,0.119,1.213,0.359,1.559
			C194.143,49.896,194.486,50.068,194.932,50.068z"/>
		<path fill="#000032" d="M204.025,51.6c-1.133,0-2.02-0.313-2.658-0.938s-0.957-1.513-0.957-2.659c0-1.18,0.295-2.092,0.885-2.737
			s1.406-0.968,2.447-0.968c0.996,0,1.771,0.284,2.326,0.852c0.553,0.566,0.83,1.35,0.83,2.35v0.933h-4.543
			c0.021,0.546,0.184,0.973,0.486,1.279s0.727,0.46,1.271,0.46c0.426,0,0.826-0.045,1.205-0.133
			c0.377-0.088,0.771-0.229,1.184-0.422v1.487c-0.336,0.168-0.695,0.293-1.078,0.374C205.043,51.559,204.576,51.6,204.025,51.6z
			 M203.756,45.664c-0.408,0-0.729,0.13-0.959,0.389c-0.23,0.258-0.363,0.625-0.396,1.1h2.697c-0.01-0.475-0.133-0.842-0.373-1.1
			C204.486,45.794,204.162,45.664,203.756,45.664z"/>
		<path fill="#000032" d="M211.027,51.475h-1.922V41.67h1.922V51.475z"/>
		<path fill="#000032" d="M223.275,48.916c0,0.832-0.299,1.486-0.896,1.966c-0.6,0.479-1.432,0.718-2.498,0.718
			c-0.984,0-1.854-0.184-2.609-0.554V49.23c0.621,0.277,1.148,0.473,1.578,0.586c0.432,0.113,0.824,0.171,1.182,0.171
			c0.428,0,0.758-0.082,0.986-0.246c0.229-0.163,0.344-0.407,0.344-0.731c0-0.18-0.051-0.34-0.152-0.481
			c-0.1-0.141-0.248-0.276-0.443-0.406s-0.594-0.338-1.193-0.624c-0.564-0.265-0.986-0.519-1.268-0.762
			c-0.281-0.244-0.506-0.527-0.674-0.852c-0.168-0.322-0.252-0.701-0.252-1.134c0-0.815,0.275-1.456,0.828-1.922
			s1.316-0.699,2.291-0.699c0.479,0,0.936,0.057,1.369,0.17c0.436,0.114,0.891,0.273,1.365,0.479l-0.631,1.518
			c-0.49-0.201-0.896-0.342-1.219-0.422s-0.637-0.119-0.949-0.119c-0.369,0-0.652,0.086-0.85,0.258s-0.297,0.396-0.297,0.674
			c0,0.173,0.041,0.322,0.121,0.451c0.078,0.128,0.207,0.252,0.381,0.371c0.174,0.12,0.586,0.336,1.238,0.646
			c0.861,0.412,1.451,0.824,1.77,1.238C223.117,47.809,223.275,48.315,223.275,48.916z"/>
		<path fill="#000032" d="M230.43,51.475l-0.258-0.901h-0.1c-0.207,0.327-0.498,0.581-0.877,0.759
			c-0.377,0.179-0.809,0.268-1.291,0.268c-0.828,0-1.451-0.221-1.871-0.664s-0.631-1.08-0.631-1.912V44.43h1.922v4.115
			c0,0.508,0.09,0.889,0.271,1.143c0.18,0.254,0.469,0.381,0.863,0.381c0.537,0,0.926-0.179,1.166-0.538
			c0.238-0.358,0.357-0.954,0.357-1.786V44.43h1.922v7.045H230.43z"/>
		<path fill="#000032" d="M238.498,44.297c0.26,0,0.477,0.02,0.648,0.057l-0.145,1.803c-0.156-0.042-0.344-0.063-0.566-0.063
			c-0.613,0-1.092,0.156-1.434,0.473c-0.344,0.314-0.514,0.756-0.514,1.322v3.586h-1.922V44.43h1.455l0.283,1.185h0.096
			c0.219-0.395,0.514-0.713,0.885-0.954C237.656,44.418,238.061,44.297,238.498,44.297z"/>
	</g>
</g>
</svg>
